gWQS Model
…
Once the data is loaded, we can proceed to understand how our chemical exposures (detected in urine samples) impact the bodymass index of participants.

Similar to the previous tutorial where age is filtered, we only want to consider participants in the data that are above 18 years old and take the natural log of BMI. By filtering and using the natural log, the distribution of the ages of participants are normalized. To finish preparing the dataset, the N/A values are removed and the resulting data is saved under the name nhanes.

nhanes <- nhanes1518 |>
    filter(RIDAGEYR>=18)|>
    mutate(BMXBMI = log(BMXBMI))|>
    select(BMXBMI, URXMHBP, URXMOH, URXMHP, URXMHH, URXMCOH, URXMHNC, URXMHH, URXECP, URXHIBP, URXMIB)

nhanes <- drop_na(nhanes)

nhanes

# A tibble: 3,523 × 10
   BMXBMI URXMHBP URXMOH URXMHP URXMHH URXMCOH URXMHNC URXECP URXHIBP URXMIB
    <dbl>   <dbl>  <dbl>  <dbl>  <dbl>   <dbl>   <dbl>  <dbl>   <dbl>  <dbl>
 1   3.01    5.3     7.8   2       8.7    0.7     1.2    14.1    27.4   73.7
 2   3.18    0.5     8.6   3.1    11.9    0.35    0.28   16.7     1.5    4.4
 3   3.78    1.1     8.4   0.57   16.4    0.6     0.28   25.8     6.3   32.7
 4   3.64    1.5     7.8   1.2    14.4    0.6     1.1    19.7     4.7    8.8
 5   3.27    0.5     1.7   0.57    2.7    0.6     0.9     3.9     2      7.1
 6   3.22    1.9    15.4   8.2    27.6    0.35    0.5    26.1     6.1   13.4
 7   3.13    0.28    6     5.1     9.5   14.2    72.2    14.1     3.7   17  
 8   3.53    1.8     1.9   2.1     2.7    0.35    0.4     4       4.9   14.7
 9   3.43    1.5     5     2.6     6.2    0.35    0.28    9.4     1.4    3.7
10   3.53    0.28    2.6   0.57    5.1    0.9     0.8     5.9     3.2   12.8
# … with 3,513 more rows
…
